single-cycle/dump.vcd
$date
	Sun May 18 18:07:22 2025
$end
$version
	Icarus Verilog
$end
$timescale
	1s
$end
$scope module flopenr $end
$var wire 1 ! clk $end
$var wire 8 " d [7:0] $end
$var wire 1 # en $end
$var wire 1 $ reset $end
$var parameter 32 % WIDTH $end
$var reg 8 & q [7:0] $end
$upscope $end
$scope module testbench $end
$var wire 32 ' WriteData [31:0] $end
$var wire 1 ( MemWrite $end
$var wire 32 ) DataAdr [31:0] $end
$var reg 1 * clk $end
$var reg 1 + reset $end
$scope module dut $end
$var wire 1 * clk $end
$var wire 1 + reset $end
$var wire 32 , WriteData [31:0] $end
$var wire 32 - ReadData [31:0] $end
$var wire 32 . PC [31:0] $end
$var wire 1 ( MemWrite $end
$var wire 32 / Instr [31:0] $end
$var wire 32 0 DataAdr [31:0] $end
$scope module dmem $end
$var wire 1 * clk $end
$var wire 32 1 rd [31:0] $end
$var wire 1 ( we $end
$var wire 32 2 wd [31:0] $end
$var wire 32 3 a [31:0] $end
$upscope $end
$scope module imem $end
$var wire 32 4 rd [31:0] $end
$var wire 32 5 a [31:0] $end
$upscope $end
$scope module rvsingle $end
$var wire 32 6 Instr [31:0] $end
$var wire 32 7 ReadData [31:0] $end
$var wire 1 * clk $end
$var wire 1 + reset $end
$var wire 1 8 Zero $end
$var wire 32 9 WriteData [31:0] $end
$var wire 2 : ResultSrc [1:0] $end
$var wire 1 ; RegWrite $end
$var wire 1 < PCSrc $end
$var wire 32 = PC [31:0] $end
$var wire 1 ( MemWrite $end
$var wire 1 > Jump $end
$var wire 2 ? ImmSrc [1:0] $end
$var wire 1 @ ALUSrc $end
$var wire 32 A ALUResult [31:0] $end
$var wire 3 B ALUControl [2:0] $end
$scope module c $end
$var wire 1 < PCSrc $end
$var wire 3 C funct3 [2:0] $end
$var wire 1 D funct7b5 $end
$var wire 7 E op [6:0] $end
$var wire 1 8 Zero $end
$var wire 2 F ResultSrc [1:0] $end
$var wire 1 ; RegWrite $end
$var wire 1 ( MemWrite $end
$var wire 1 > Jump $end
$var wire 2 G ImmSrc [1:0] $end
$var wire 1 H Branch $end
$var wire 1 @ ALUSrc $end
$var wire 2 I ALUOp [1:0] $end
$var wire 3 J ALUControl [2:0] $end
$scope module ad $end
$var wire 1 K RtypeSub $end
$var wire 3 L funct3 [2:0] $end
$var wire 1 D funct7b5 $end
$var wire 1 M opb5 $end
$var wire 2 N ALUOp [1:0] $end
$var reg 3 O ALUControl [2:0] $end
$upscope $end
$scope module md $end
$var wire 7 P op [6:0] $end
$var wire 2 Q ResultSrc [1:0] $end
$var wire 1 ; RegWrite $end
$var wire 1 ( MemWrite $end
$var wire 1 > Jump $end
$var wire 2 R ImmSrc [1:0] $end
$var wire 1 H Branch $end
$var wire 1 @ ALUSrc $end
$var wire 2 S ALUOp [1:0] $end
$var reg 11 T controls [10:0] $end
$upscope $end
$upscope $end
$scope module dp $end
$var wire 3 U ALUControl [2:0] $end
$var wire 1 @ ALUSrc $end
$var wire 2 V ImmSrc [1:0] $end
$var wire 32 W Instr [31:0] $end
$var wire 1 < PCSrc $end
$var wire 32 X ReadData [31:0] $end
$var wire 1 ; RegWrite $end
$var wire 2 Y ResultSrc [1:0] $end
$var wire 1 * clk $end
$var wire 1 + reset $end
$var wire 1 8 Zero $end
$var wire 32 Z WriteData [31:0] $end
$var wire 32 [ SrcB [31:0] $end
$var wire 32 \ SrcA [31:0] $end
$var wire 32 ] Result [31:0] $end
$var wire 32 ^ PCTarget [31:0] $end
$var wire 32 _ PCPlus4 [31:0] $end
$var wire 32 ` PCNext [31:0] $end
$var wire 32 a PC [31:0] $end
$var wire 32 b ImmExt [31:0] $end
$var wire 32 c ALUResult [31:0] $end
$scope module alu $end
$var wire 3 d ALUControl [2:0] $end
$var wire 1 8 Zero $end
$var wire 32 e SrcB [31:0] $end
$var wire 32 f SrcA [31:0] $end
$var reg 32 g ALUResult [31:0] $end
$upscope $end
$scope module ext $end
$var wire 2 h immsrc [1:0] $end
$var wire 25 i instr [31:7] $end
$var reg 32 j immext [31:0] $end
$upscope $end
$scope module pcadd4 $end
$var wire 32 k b [31:0] $end
$var wire 32 l y [31:0] $end
$var wire 32 m a [31:0] $end
$upscope $end
$scope module pcaddbranch $end
$var wire 32 n b [31:0] $end
$var wire 32 o y [31:0] $end
$var wire 32 p a [31:0] $end
$upscope $end
$scope module pcmux $end
$var wire 32 q d0 [31:0] $end
$var wire 32 r d1 [31:0] $end
$var wire 1 < s $end
$var wire 32 s y [31:0] $end
$var parameter 32 t WIDTH $end
$upscope $end
$scope module pcreg $end
$var wire 1 * clk $end
$var wire 32 u d [31:0] $end
$var wire 1 + reset $end
$var parameter 32 v WIDTH $end
$var reg 32 w q [31:0] $end
$upscope $end
$scope module resultmux $end
$var wire 32 x d0 [31:0] $end
$var wire 32 y d1 [31:0] $end
$var wire 32 z d2 [31:0] $end
$var wire 2 { s [1:0] $end
$var wire 32 | y [31:0] $end
$var parameter 32 } WIDTH $end
$upscope $end
$scope module rf $end
$var wire 5 ~ a1 [4:0] $end
$var wire 5 !" a2 [4:0] $end
$var wire 5 "" a3 [4:0] $end
$var wire 1 * clk $end
$var wire 32 #" wd3 [31:0] $end
$var wire 1 ; we3 $end
$var wire 32 $" rd2 [31:0] $end
$var wire 32 %" rd1 [31:0] $end
$upscope $end
$scope module srcbmux $end
$var wire 32 &" d0 [31:0] $end
$var wire 32 '" d1 [31:0] $end
$var wire 1 @ s $end
$var wire 32 (" y [31:0] $end
$var parameter 32 )" WIDTH $end
$upscope $end
$upscope $end
$upscope $end
$upscope $end
$upscope $end
$enddefinitions $end
$comment Show the parameter values. $end
$dumpall
b100000 )"
b100000 }
b100000 v
b100000 t
b1000 %
$end
#0
$dumpvars
b101 ("
b101 '"
bx &"
b0 %"
bx $"
b101 #"
b10 ""
b101 !"
b0 ~
b101 |
b0 {
b100 z
bx y
b101 x
b0 w
b100 u
b100 s
b101 r
b100 q
b0 p
b101 o
b101 n
b0 m
b100 l
b100 k
b101 j
b1010000000000010 i
b0 h
b101 g
b0 f
b101 e
b0 d
b101 c
b101 b
b0 a
b100 `
b100 _
b101 ^
b101 ]
b0 \
b101 [
bx Z
b0 Y
bx X
b10100000000000100010011 W
b0 V
b0 U
b10010000100 T
b10 S
b0 R
b0 Q
b10011 P
b0 O
b10 N
0M
b0 L
0K
b0 J
b10 I
0H
b0 G
b0 F
b10011 E
0D
b0 C
b0 B
b101 A
1@
b0 ?
0>
b0 =
0<
1;
b0 :
bx 9
08
bx 7
b10100000000000100010011 6
b0 5
b10100000000000100010011 4
b101 3
bx 2
bx 1
b101 0
b10100000000000100010011 /
b0 .
bx -
bx ,
1+
1*
b101 )
0(
bx '
bx &
z$
z#
bz "
z!
$end
#5
0*
#10
1*
#15
0*
#20
1*
#22
0+
#25
0*
#30
b1100 ]
b1100 |
b1100 #"
b1100 )
b1100 0
b1100 3
b1100 A
b1100 c
b1100 g
b1100 x
b1100 [
b1100 e
b1100 ("
b1100 b
b1100 j
b1100 n
b1100 '"
b1100 !"
b11 ""
b11000000000000011 i
b1000 `
b1000 s
b1000 u
b110000000000000110010011 /
b110000000000000110010011 4
b110000000000000110010011 6
b110000000000000110010011 W
b10000 ^
b10000 o
b10000 r
b1000 _
b1000 l
b1000 q
b1000 z
b100 .
b100 5
b100 =
b100 a
b100 m
b100 p
b100 w
1*
#35
0*
#40
b11 ]
b11 |
b11 #"
b11 )
b11 0
b11 3
b11 A
b11 c
b11 g
b11 x
b11111111111111111111111111110111 [
b11111111111111111111111111110111 e
b11111111111111111111111111110111 ("
b1100 \
b1100 f
b1100 %"
b11111111111111111111111111110111 b
b11111111111111111111111111110111 j
b11111111111111111111111111110111 n
b11111111111111111111111111110111 '"
1D
b11 ~
b10111 !"
b111 ""
b1111111101110001100000111 i
b1100 `
b1100 s
b1100 u
b11111111011100011000001110010011 /
b11111111011100011000001110010011 4
b11111111011100011000001110010011 6
b11111111011100011000001110010011 W
b11111111111111111111111111111111 ^
b11111111111111111111111111111111 o
b11111111111111111111111111111111 r
b1100 _
b1100 l
b1100 q
b1100 z
b1000 .
b1000 5
b1000 =
b1000 a
b1000 m
b1000 p
b1000 w
1*
#45
0*
#50
b111 ]
b111 |
b111 #"
b111 )
b111 0
b111 3
b111 A
b111 c
b111 g
b111 x
bx ?
bx G
bx R
bx V
bx h
0@
b101 [
b101 e
b101 ("
1M
b1xx00000100 T
b11 B
b11 J
b11 O
b11 U
b11 d
b11 \
b11 f
b11 %"
b101 '
b101 ,
b101 2
b101 9
b101 Z
b101 $"
b101 &"
bx b
bx j
bx n
bx '"
b110011 E
b110011 P
b110 C
b110 L
0D
b111 ~
b10 !"
b100 ""
b100011111000100 i
b10000 `
b10000 s
b10000 u
b1000111110001000110011 /
b1000111110001000110011 4
b1000111110001000110011 6
b1000111110001000110011 W
bx ^
bx o
bx r
b10000 _
b10000 l
b10000 q
b10000 z
b1100 .
b1100 5
b1100 =
b1100 a
b1100 m
b1100 p
b1100 w
1*
#55
0*
#60
b100 ]
b100 |
b100 #"
b100 )
b100 0
b100 3
b100 A
b100 c
b100 g
b100 x
b111 [
b111 e
b111 ("
b10 B
b10 J
b10 O
b10 U
b10 d
b1100 \
b1100 f
b1100 %"
b111 '
b111 ,
b111 2
b111 9
b111 Z
b111 $"
b111 &"
b111 C
b111 L
b11 ~
b100 !"
b101 ""
b1000001111100101 i
b10100 `
b10100 s
b10100 u
b10000011111001010110011 /
b10000011111001010110011 4
b10000011111001010110011 6
b10000011111001010110011 W
b10100 _
b10100 l
b10100 q
b10100 z
b10000 .
b10000 5
b10000 =
b10000 a
b10000 m
b10000 p
b10000 w
1*
#65
0*
#70
b1011 ]
b1011 |
b1011 #"
b1011 )
b1011 0
b1011 3
b1011 A
b1011 c
b1011 g
b1011 x
b0 B
b0 J
b0 O
b0 U
b0 d
b100 \
b100 f
b100 %"
b0 C
b0 L
b101 ~
b1000010100000101 i
b11000 `
b11000 s
b11000 u
b10000101000001010110011 /
b10000101000001010110011 4
b10000101000001010110011 6
b10000101000001010110011 W
b11000 _
b11000 l
b11000 q
b11000 z
b10100 .
b10100 5
b10100 =
b10100 a
b10100 m
b10100 p
b10100 w
1*
#75
0*
#80
b1001000 ^
b1001000 o
b1001000 r
b110000 b
b110000 j
b110000 n
b110000 '"
b1 B
b1 J
b1 O
b1 U
b1 d
b1000 ]
b1000 |
b1000 #"
0;
b10 ?
b10 G
b10 R
b10 V
b10 h
1H
b1 I
b1 N
b1 S
b11 [
b11 e
b11 ("
b1000001010 T
b11 '
b11 ,
b11 2
b11 9
b11 Z
b11 $"
b11 &"
b1000 )
b1000 0
b1000 3
b1000 A
b1000 c
b1000 g
b1000 x
b1100011 E
b1100011 P
b111 !"
b10000 ""
b1001110010100010000 i
b1011 \
b1011 f
b1011 %"
b11100 `
b11100 s
b11100 u
b10011100101000100001100011 /
b10011100101000100001100011 4
b10011100101000100001100011 6
b10011100101000100001100011 W
b11100 _
b11100 l
b11100 q
b11100 z
b11000 .
b11000 5
b11000 =
b11000 a
b11000 m
b11000 p
b11000 w
1*
#85
0*
#90
18
b0 ]
b0 |
b0 #"
b101 B
b101 J
b101 O
b101 U
b101 d
1;
bx ?
bx G
bx R
bx V
bx h
0H
b10 I
b10 N
b10 S
b0 )
b0 0
b0 3
b0 A
b0 c
b0 g
b0 x
b111 [
b111 e
b111 ("
b1xx00000100 T
b1100 \
b1100 f
b1100 %"
b111 '
b111 ,
b111 2
b111 9
b111 Z
b111 $"
b111 &"
bx b
bx j
bx n
bx '"
b110011 E
b110011 P
b10 C
b10 L
b11 ~
b100 !"
b100 ""
b1000001101000100 i
b100000 `
b100000 s
b100000 u
b10000011010001000110011 /
b10000011010001000110011 4
b10000011010001000110011 6
b10000011010001000110011 W
bx ^
bx o
bx r
b100000 _
b100000 l
b100000 q
b100000 z
b11100 .
b11100 5
b11100 =
b11100 a
b11100 m
b11100 p
b11100 w
1*
#95
0*
#100
1<
b101000 ^
b101000 o
b101000 r
b1000 b
b1000 j
b1000 n
b1000 '"
0;
b10 ?
b10 G
b10 R
b10 V
b10 h
1H
b1 I
b1 N
b1 S
b1000001010 T
b1 B
b1 J
b1 O
b1 U
b1 d
b0 \
b0 f
b0 %"
b0 [
b0 e
b0 ("
b1100011 E
b1100011 P
b0 C
b0 L
b100 ~
b0 !"
b1000 ""
b10000001000 i
b0 '
b0 ,
b0 2
b0 9
b0 Z
b0 $"
b0 &"
b101000 `
b101000 s
b101000 u
b100000010001100011 /
b100000010001100011 4
b100000010001100011 6
b100000010001100011 W
b100100 _
b100100 l
b100100 q
b100100 z
b100000 .
b100000 5
b100000 =
b100000 a
b100000 m
b100000 p
b100000 w
1*
#105
0*
#110
0<
b1 ]
b1 |
b1 #"
b101 B
b101 J
b101 O
b101 U
b101 d
1;
bx ?
bx G
bx R
bx V
bx h
0H
b10 I
b10 N
b10 S
08
b1 )
b1 0
b1 3
b1 A
b1 c
b1 g
b1 x
b101 [
b101 e
b101 ("
b1xx00000100 T
b11 \
b11 f
b11 %"
b101 '
b101 ,
b101 2
b101 9
b101 Z
b101 $"
b101 &"
bx b
bx j
bx n
bx '"
b110011 E
b110011 P
b10 C
b10 L
b111 ~
b10 !"
b100 ""
b100011101000100 i
b101100 `
b101100 s
b101100 u
b1000111010001000110011 /
b1000111010001000110011 4
b1000111010001000110011 6
b1000111010001000110011 W
bx ^
bx o
bx r
b101100 _
b101100 l
b101100 q
b101100 z
b101000 .
b101000 5
b101000 =
b101000 a
b101000 m
b101000 p
b101000 w
1*
#115
0*
#120
b1100 ]
b1100 |
b1100 #"
b1100 )
b1100 0
b1100 3
b1100 A
b1100 c
b1100 g
b1100 x
b1011 [
b1011 e
b1011 ("
b0 B
b0 J
b0 O
b0 U
b0 d
b1 \
b1 f
b1 %"
b1011 '
b1011 ,
b1011 2
b1011 9
b1011 Z
b1011 $"
b1011 &"
b0 C
b0 L
b100 ~
b101 !"
b111 ""
b1010010000000111 i
b110000 `
b110000 s
b110000 u
b10100100000001110110011 /
b10100100000001110110011 4
b10100100000001110110011 6
b10100100000001110110011 W
b110000 _
b110000 l
b110000 q
b110000 z
b101100 .
b101100 5
b101100 =
b101100 a
b101100 m
b101100 p
b101100 w
1*
#125
0*
#130
b111 ]
b111 |
b111 #"
b1 B
b1 J
b1 O
b1 U
b1 d
b111 )
b111 0
b111 3
b111 A
b111 c
b111 g
b111 x
b101 [
b101 e
b101 ("
1K
b1100 \
b1100 f
b1100 %"
b101 '
b101 ,
b101 2
b101 9
b101 Z
b101 $"
b101 &"
1D
b111 ~
b10 !"
b100000000100011100000111 i
b110100 `
b110100 s
b110100 u
b1000000001000111000001110110011 /
b1000000001000111000001110110011 4
b1000000001000111000001110110011 6
b1000000001000111000001110110011 W
b110100 _
b110100 l
b110100 q
b110100 z
b110000 .
b110000 5
b110000 =
b110000 a
b110000 m
b110000 p
b110000 w
1*
#135
0*
#140
b10001000 ^
b10001000 o
b10001000 r
b1010100 b
b1010100 j
b1010100 n
b1010100 '"
b1100000 ]
b1100000 |
b1100000 #"
0;
b1 ?
b1 G
b1 R
b1 V
b1 h
1@
1(
b0 I
b0 N
b0 S
08
b1010100 [
b1010100 e
b1010100 ("
b111000000 T
b0 B
b0 J
b0 O
b0 U
b0 d
0K
b111 '
b111 ,
b111 2
b111 9
b111 Z
b111 $"
b111 &"
b1100000 )
b1100000 0
b1100000 3
b1100000 A
b1100000 c
b1100000 g
b1100000 x
b100011 E
b100011 P
b10 C
b10 L
0D
b11 ~
b111 !"
b10100 ""
b10001110001101010100 i
b1100 \
b1100 f
b1100 %"
b111000 `
b111000 s
b111000 u
b100011100011010101000100011 /
b100011100011010101000100011 4
b100011100011010101000100011 6
b100011100011010101000100011 W
b111000 _
b111000 l
b111000 q
b111000 z
b110100 .
b110100 5
b110100 =
b110100 a
b110100 m
b110100 p
b110100 w
1*
#145
0*
#150
b111 ]
b111 |
b111 #"
1;
b0 ?
b0 G
b0 R
b0 V
b0 h
0(
b1 :
b1 F
b1 Q
b1 Y
b1 {
b1100000 )
b1100000 0
b1100000 3
b1100000 A
b1100000 c
b1100000 g
b1100000 x
b1100000 [
b1100000 e
b1100000 ("
0M
b10010010000 T
b0 \
b0 f
b0 %"
b0 '
b0 ,
b0 2
b0 9
b0 Z
b0 $"
b0 &"
b1100000 b
b1100000 j
b1100000 n
b1100000 '"
b11 E
b11 P
b0 ~
b0 !"
b10 ""
b11000000000001000010 i
b111100 `
b111100 s
b111100 u
b110000000000010000100000011 /
b110000000000010000100000011 4
b110000000000010000100000011 6
b110000000000010000100000011 W
b111 -
b111 1
b111 7
b111 X
b111 y
b10011000 ^
b10011000 o
b10011000 r
b111100 _
b111100 l
b111100 q
b111100 z
b111000 .
b111000 5
b111000 =
b111000 a
b111000 m
b111000 p
b111000 w
1*
#155
0*
#160
b10010 ]
b10010 |
b10010 #"
bx -
bx 1
bx 7
bx X
bx y
bx ?
bx G
bx R
bx V
bx h
0@
b0 :
b0 F
b0 Q
b0 Y
b0 {
b10 I
b10 N
b10 S
b10010 )
b10010 0
b10010 3
b10010 A
b10010 c
b10010 g
b10010 x
b1011 [
b1011 e
b1011 ("
1M
b1xx00000100 T
b111 \
b111 f
b111 %"
b1011 '
b1011 ,
b1011 2
b1011 9
b1011 Z
b1011 $"
b1011 &"
bx b
bx j
bx n
bx '"
b110011 E
b110011 P
b0 C
b0 L
b10 ~
b101 !"
b1001 ""
b1010001000001001 i
b1000000 `
b1000000 s
b1000000 u
b10100010000010010110011 /
b10100010000010010110011 4
b10100010000010010110011 6
b10100010000010010110011 W
bx ^
bx o
bx r
b1000000 _
b1000000 l
b1000000 q
b1000000 z
b111100 .
b111100 5
b111100 =
b111100 a
b111100 m
b111100 p
b111100 w
1*
#165
0*
#170
b1000100 ]
b1000100 |
b1000100 #"
b1001000 ^
b1001000 o
b1001000 r
b1000 b
b1000 j
b1000 n
b1000 '"
1<
b11 ?
b11 G
b11 R
b11 V
b11 h
b10 :
b10 F
b10 Q
b10 Y
b10 {
b0 I
b0 N
b0 S
1>
x8
bx )
bx 0
bx 3
bx A
bx c
bx g
bx x
bx [
bx e
bx ("
b11100100001 T
b0 \
b0 f
b0 %"
bx '
bx ,
bx 2
bx 9
bx Z
bx $"
bx &"
b1101111 E
b1101111 P
b0 ~
b1000 !"
b11 ""
b10000000000000011 i
b1001000 `
b1001000 s
b1001000 u
b100000000000000111101111 /
b100000000000000111101111 4
b100000000000000111101111 6
b100000000000000111101111 W
b1000100 _
b1000100 l
b1000100 q
b1000100 z
b1000000 .
b1000000 5
b1000000 =
b1000000 a
b1000000 m
b1000000 p
b1000000 w
1*
#175
0*
#180
0<
bx ?
bx G
bx R
bx V
bx h
b0 :
b0 F
b0 Q
b0 Y
b0 {
b10 I
b10 N
b10 S
0>
08
b11001 )
b11001 0
b11001 3
b11001 A
b11001 c
b11001 g
b11001 x
b10010 [
b10010 e
b10010 ("
b1xx00000100 T
b111 \
b111 f
b111 %"
b10010 '
b10010 ,
b10010 2
b10010 9
b10010 Z
b10010 $"
b10010 &"
bx b
bx j
bx n
bx '"
b110011 E
b110011 P
b10 ~
b1001 !"
b10 ""
b10010001000000010 i
b1001100 `
b1001100 s
b1001100 u
b11001 ]
b11001 |
b11001 #"
b100100010000000100110011 /
b100100010000000100110011 4
b100100010000000100110011 6
b100100010000000100110011 W
bx ^
bx o
bx r
b1001100 _
b1001100 l
b1001100 q
b1001100 z
b1001000 .
b1001000 5
b1001000 =
b1001000 a
b1001000 m
b1001000 p
b1001000 w
1*
#185
0*
#190
b1101100 ^
b1101100 o
b1101100 r
b100000 b
b100000 j
b100000 n
b100000 '"
b1100100 ]
b1100100 |
b1100100 #"
0;
b1 ?
b1 G
b1 R
b1 V
b1 h
1@
1(
b0 I
b0 N
b0 S
08
b100000 [
b100000 e
b100000 ("
b111000000 T
b0 B
b0 J
b0 O
b0 U
b0 d
b11001 '
b11001 ,
b11001 2
b11001 9
b11001 Z
b11001 $"
b11001 &"
b1100100 )
b1100100 0
b1100100 3
b1100100 A
b1100100 c
b1100100 g
b1100100 x
b100011 E
b100011 P
b10 C
b10 L
b11 ~
b10 !"
b0 ""
b1000100001101000000 i
b1000100 \
b1000100 f
b1000100 %"
b1010000 `
b1010000 s
b1010000 u
b10001000011010000000100011 /
b10001000011010000000100011 4
b10001000011010000000100011 6
b10001000011010000000100011 W
b1010000 _
b1010000 l
b1010000 q
b1010000 z
b1001100 .
b1001100 5
b1001100 =
b1001100 a
b1001100 m
b1001100 p
b1001100 w
1*
#195
0*
#200
1<
18
b0 ]
b0 |
b0 #"
b1 B
b1 J
b1 O
b1 U
b1 d
b10 ?
b10 G
b10 R
b10 V
b10 h
0@
0(
1H
b1 I
b1 N
b1 S
b0 )
b0 0
b0 3
b0 A
b0 c
b0 g
b0 x
b11001 [
b11001 e
b11001 ("
b1000001010 T
b11001 \
b11001 f
b11001 %"
b0 b
b0 j
b0 n
b0 '"
b1100011 E
b1100011 P
b0 C
b0 L
b10 ~
b100001000000000 i
b1010000 `
b1010000 s
b1010000 u
b1000010000000001100011 /
b1000010000000001100011 4
b1000010000000001100011 6
b1000010000000001100011 W
bx -
bx 1
bx 7
bx X
bx y
b1010000 ^
b1010000 o
b1010000 r
b1010100 _
b1010100 l
b1010100 q
b1010100 z
b1010000 .
b1010000 5
b1010000 =
b1010000 a
b1010000 m
b1010000 p
b1010000 w
1*
